Anemonefish Mutualism Analysis Results
…
Mean AUC_test_CV per species and model type:
# A tibble: 36 × 3
   species                 model_type        mean_auc
   <chr>                   <fct>                <dbl>
 1 Amphiprion_akindynos    env_only             0.891
 2 Amphiprion_akindynos    biotic_only          0.765
 3 Amphiprion_akindynos    combined_host_env    0.896
 4 Amphiprion_allardi      env_only             0.946
 5 Amphiprion_allardi      biotic_only          0.959
 6 Amphiprion_allardi      combined_host_env    0.963
 7 Amphiprion_bicinctus    env_only             0.842
 8 Amphiprion_bicinctus    biotic_only          0.912
 9 Amphiprion_bicinctus    combined_host_env    0.916
10 Amphiprion_chrysopterus env_only             0.891
# ℹ 26 more rows
…
